<?xml version="1.0" encoding="utf-8"?>
<!-- Generator: Adobe Illustrator 15.0.0, SVG Export Plug-In . SVG Version: 6.00 Build 0)  -->
<!DOCTYPE svg PUBLIC "-//W3C//DTD SVG 1.1//EN" "http://www.w3.org/Graphics/SVG/1.1/DTD/svg11.dtd" [
	<!ENTITY ns_extend "http://ns.adobe.com/Extensibility/1.0/">
	<!ENTITY ns_ai "http://ns.adobe.com/AdobeIllustrator/10.0/">
	<!ENTITY ns_graphs "http://ns.adobe.com/Graphs/1.0/">
	<!ENTITY ns_vars "http://ns.adobe.com/Variables/1.0/">
	<!ENTITY ns_imrep "http://ns.adobe.com/ImageReplacement/1.0/">
	<!ENTITY ns_sfw "http://ns.adobe.com/SaveForWeb/1.0/">
	<!ENTITY ns_custom "http://ns.adobe.com/GenericCustomNamespace/1.0/">
	<!ENTITY ns_adobe_xpath "http://ns.adobe.com/XPath/1.0/">
]>
<svg version="1.1" id="Layer_1" xmlns:x="&ns_extend;" xmlns:i="&ns_ai;" xmlns:graph="&ns_graphs;"
	 xmlns="http://www.w3.org/2000/svg" xmlns:xlink="http://www.w3.org/1999/xlink" x="0px" y="0px" width="50px" height="50px"
	 viewBox="0 0 50 50" enable-background="new 0 0 50 50" xml:space="preserve">
<metadata>
	<sfw  xmlns="&ns_sfw;">
		<slices></slices>
		<sliceSourceBounds  x="-0.5" y="0.5" width="50" height="50" bottomLeftOrigin="true"></sliceSourceBounds>
	</sfw>
</metadata>
<rect fill="#FE7058" width="50" height="50"/>
<g>
	<path fill="#404041" d="M27.732,27.34c-0.152,0.234-0.263,0.475-0.307,0.721c-0.044,0.244-0.059,0.49-0.06,0.732
		c1.36-0.205,3.239-0.594,5.48-1.34c0-2.412-0.129-4.456-0.354-6.186c-0.968-7.479-3.724-9.121-5.609-9.321
		c-0.148-0.016-0.292-0.022-0.429-0.022c-0.861,0-1.456,0.271-1.456,0.271s-0.595-0.271-1.457-0.271
		c-2.27,0-6.392,1.878-6.392,15.53c2.241,0.746,4.12,1.135,5.481,1.34c-0.002-0.248-0.016-0.498-0.063-0.748
		c-0.046-0.24-0.154-0.477-0.304-0.707l-0.164-0.248c-0.909-1.045-1.407-2.564-1.671-4.437l0.021-0.007
		c0.215-0.084,0.419-0.171,0.621-0.26c5.107-2.277,6.282-6.283,6.282-6.283s1.35,2.269,2.305,4.453l0.088,0.201l0.009,0.023
		c-0.167,2.752-0.661,4.935-1.858,6.31L27.732,27.34z"/>
	<path fill="#404041" d="M29.799,31.604c-0.151,2.531-2.23,4.541-4.8,4.541c-2.57,0-4.648-2.01-4.8-4.541
		c-1.987,0.34-4.953,0.969-5.963,1.834c-1.567,1.348-1.793,4.639-1.793,4.639h25.112c0,0-0.225-3.291-1.793-4.639
		C34.752,32.572,31.786,31.943,29.799,31.604"/>
	<path fill="#404041" d="M24.999,35.18c2.028,0,3.713-1.596,3.836-3.633l0.006-0.098c-0.575-0.088-0.944-0.133-0.944-0.133
		s-0.538-1.193-0.53-2.523c0.001-0.242,0.016-0.488,0.06-0.732c0.044-0.246,0.154-0.486,0.307-0.721l0.164-0.25
		c1.197-1.375,1.691-3.558,1.858-6.31l-0.009-0.023l-0.088-0.201c-0.955-2.184-2.305-4.453-2.305-4.453s-1.175,4.006-6.282,6.283
		c-0.201,0.089-0.406,0.176-0.621,0.26l-0.021,0.007c0.264,1.872,0.762,3.392,1.671,4.437l0.164,0.248
		c0.149,0.23,0.258,0.467,0.304,0.707c0.047,0.25,0.062,0.5,0.063,0.748c0.009,1.33-0.531,2.523-0.531,2.523
		s-0.37,0.045-0.944,0.133l0.005,0.098C21.285,33.584,22.97,35.18,24.999,35.18z"/>
</g>
</svg>
